<?xml version="1.0" encoding="utf-8"?>
<!-- Generator: Adobe Illustrator 23.0.1, SVG Export Plug-In . SVG Version: 6.00 Build 0)  -->
<svg version="1.1" id="Capa_1" xmlns="http://www.w3.org/2000/svg" xmlns:xlink="http://www.w3.org/1999/xlink" x="0px" y="0px"
	 width="512px" height="512px" viewBox="0 0 512 512" style="enable-background:new 0 0 512 512;" xml:space="preserve">
<style type="text/css">
	.st0{fill:#6BC4C7;}
</style>
<g>
	<g>
		<g>
			<path class="st0" d="M488.5,182.1c-2.5-3.3-7.2-3.9-10.5-1.4c-3.3,2.5-3.9,7.2-1.4,10.5c13.4,17.4,20.4,38.3,20.4,60.3
				c0,74.2-36.7,120.8-67.5,146.8c-39,33-90.9,51.9-142.3,51.9c-41.3,0-78.7-12.4-114.2-37.9c-3.4-2.4-8.1-1.6-10.5,1.7
				c-2.4,3.4-1.6,8.1,1.7,10.5c38.2,27.4,78.4,40.7,122.9,40.7c54.9,0,110.3-20.2,152-55.4c22.5-19,40.2-41.6,52.6-67.2
				c13.5-27.8,20.3-58.4,20.3-91.1C512,226.2,503.9,202.2,488.5,182.1z"/>
			<path class="st0" d="M186.3,303.1c22.7,22.7,49.9,30.5,72.9,21c24.4-10.1,39.5-37.9,39.5-72.6c0-54.7,44.5-99.1,99.1-99.1
				c19.6,0,38.5,5.7,54.8,16.5c3.5,2.3,8.1,1.4,10.4-2.1c2.3-3.5,1.4-8.1-2.1-10.4c-18.5-12.3-40.1-18.9-62.4-19
				c-9.2-26.6-5.3-61.3-3.4-78.5c0.9-7.9-1.4-15.6-6.3-21.8s-12-10.1-19.9-10.9c-16.2-1.8-30.9,9.9-32.7,26.2
				c-2.3,20.5-6.9,61.9,4.9,100.1c-34.3,19.7-57.4,56.7-57.4,99c0,28.5-11.6,51-30.3,58.7c-17.4,7.2-38,0.7-56.6-17.8
				c-15.9-15.9-38.4-21-58.6-15.5c-14.2-9.9-30.9-15.2-48.4-15.6c-23.5-0.5-45.9,8.5-62.9,25.2C9.8,303.4,0,326.8,0,350.7V372
				c0,39.8,15.5,77.2,43.6,105.3c5.6,5.6,13,8.7,20.9,8.7s15.4-3.1,20.9-8.7c5.6-5.6,8.7-13,8.7-20.9s-3.1-15.4-8.7-20.9
				c-16.9-16.9-26.3-39.4-26.3-63.4v-21.3c0-8.1,3.4-16.1,9.2-21.8c5.6-5.5,12.8-8.4,20.3-8.3c2.2,0,4.4,0.3,6.6,0.9
				c-4.5,19.7,0.8,41.2,16.1,56.4c8,8,15.9,15.8,24.8,23.9c1.4,1.3,3.2,1.9,5,1.9c2,0,4.1-0.8,5.6-2.5c2.8-3.1,2.5-7.8-0.5-10.6
				c-8.7-7.8-16.4-15.5-24.3-23.4c-17.7-17.7-17.7-46.5,0-64.3C139.7,285.4,168.6,285.4,186.3,303.1z M351.1,54
				c0.9-8,8.1-13.8,16.1-12.9c3.9,0.4,7.4,2.3,9.8,5.4c2.4,3,3.5,6.9,3.1,10.8c-1.9,17.5-5.8,52,2.9,81.1
				c-9.9,1.3-19.3,3.8-28.3,7.5C344.8,111.2,349,73.1,351.1,54z M111.4,292.5c-4.5,4.5-8.1,9.5-10.9,14.9c-3.7-1.1-7.5-1.7-11.4-1.8
				c-11.5-0.2-22.6,4.2-31.1,12.6c-8.7,8.6-13.7,20.4-13.7,32.5V372c0,28,10.9,54.2,30.7,74c2.8,2.8,4.3,6.4,4.3,10.3
				s-1.5,7.6-4.3,10.3c-2.8,2.8-6.4,4.3-10.3,4.3s-7.6-1.5-10.3-4.3C28.9,441.4,15,407.8,15,372v-21.3c0-19.9,8.2-39.4,22.5-53.4
				c14.2-13.9,32.7-21.3,52.1-20.9c11.3,0.2,22.1,3,31.9,8C117.9,286.6,114.5,289.3,111.4,292.5z"/>
			<path class="st0" d="M364.6,409.2c2.5-9.4,0.2-19.5-6.5-28.5c-13.5-18.1-42.1-29.4-78.5-30.7c-51.8-2-70.5,21.7-76.1,32
				c-4,7.4-4.8,16.2-2,24.2c1.9,5.4,5.3,10.2,9.7,13.7c0.1,0.1,0.2,0.2,0.3,0.3c2.2,1.7,4.6,3.1,7.2,4.2c21.5,9,44.5,13.6,68.4,13.6
				c18.9,0,38-2.7,56.7-8h0C354,427.1,362,419.1,364.6,409.2z M287.1,423c-20.7,0-39.9-3.5-58.6-10.8c3.4-2.3,7.3-3.7,11.4-4
				c2.3-0.2,4.6,0,6.8,0.6c6.9,1.6,14.2-1.6,17.7-7.8c4.1-7.2,11.7-11.6,20-11.6c8.6,0,16.4,4.8,20.4,12.4c2.5,4.8,6.7,8.3,11.9,9.9
				c4.2,1.3,7.9,3.7,10.8,7C314.1,421.5,300.6,423,287.1,423z M350.1,405.4c-1,3.8-3.7,7.1-7.3,9c-4.8-8.2-12.5-14.3-21.7-17.1
				c-1.3-0.4-2.3-1.2-2.9-2.4c-6.6-12.7-19.5-20.5-33.7-20.5c-13.6,0-26.3,7.4-33,19.2c-0.2,0.4-0.8,0.7-1.2,0.6
				c-3.7-0.9-7.5-1.2-11.3-0.9c-8.4,0.6-16.3,4-22.6,9.5c-0.2-0.5-0.4-1-0.6-1.5c-1.4-4.1-1.1-8.3,1-12.1
				c11.9-21.6,43.5-24.3,58.1-24.3c1.7,0,3.1,0,4.3,0.1c31.4,1.2,56.4,10.4,67,24.7C348.8,393.3,351.7,399.1,350.1,405.4z"/>
			<path class="st0" d="M330.2,288.3c0.8,0,1.7-0.1,2.5-0.4c3.9-1.4,6-5.7,4.6-9.6l-3.2-9c-1.4-3.9-5.7-6-9.6-4.6
				c-3.9,1.4-6,5.7-4.6,9.6l3.2,9C324.3,286.4,327.1,288.3,330.2,288.3z"/>
			<path class="st0" d="M375.3,293c3.9,2.1,8,3.2,12.1,3.2c2.7,0,5.4-0.5,8-1.4c6.6-2.3,11.7-7.3,14.5-14c2.6-6.4,2.8-13.7,0.4-20.5
				s-7.1-12.4-13.2-15.7c-6.4-3.5-13.5-4.1-20.1-1.8c-13.2,4.7-19.9,20.2-14.8,34.5C364.5,284.1,369.2,289.7,375.3,293z
				 M381.9,256.9c0.9-0.3,1.9-0.5,2.9-0.5c1.6,0,3.3,0.4,4.9,1.3c2.8,1.6,5.1,4.3,6.2,7.6c1.2,3.3,1.1,6.8-0.1,9.8
				c-1.1,2.7-3.1,4.7-5.6,5.6c-2.5,0.9-5.3,0.6-7.8-0.8c-2.8-1.6-5.1-4.3-6.2-7.6C373.9,265.7,376.5,258.8,381.9,256.9z"/>
			<path class="st0" d="M431.4,226.9c-3.9,1.4-6,5.7-4.6,9.6l3.2,9c1.1,3.1,4,5,7.1,5c0.8,0,1.7-0.1,2.5-0.4c3.9-1.4,6-5.7,4.6-9.6
				l-3.2-9C439.6,227.6,435.3,225.5,431.4,226.9z"/>
		</g>
	</g>
</g>
</svg>
