<?xml version="1.0" encoding="utf-8"?>
<!-- Generator: Adobe Illustrator 23.0.1, SVG Export Plug-In . SVG Version: 6.00 Build 0)  -->
<svg version="1.1" id="Capa_1" xmlns="http://www.w3.org/2000/svg" xmlns:xlink="http://www.w3.org/1999/xlink" x="0px" y="0px"
	 width="512px" height="512px" viewBox="0 0 512 512" style="enable-background:new 0 0 512 512;" xml:space="preserve">
<style type="text/css">
	.st0{fill:#6BC4C7;}
</style>
<g>
	<g>
		<path class="st0" d="M352,12.6c2.3-2.5,2.6-6.3,0.8-9.2c-1.9-2.9-5.4-4.1-8.7-3c-2.3,0.8-57.2,20-91.1,100.1
			c-1.6,3.8,0.2,8.2,4,9.8c3.8,1.6,8.2-0.2,9.8-4c13.4-31.7,30.4-52.8,44.4-66.2C287.3,75.6,270.9,116,262,160.8
			c-8.4,42.8-4.5,87.9,11.4,130.4c4.6,12.3,7.6,25.7,7.6,34c0,17.6-14.4,32-32,32s-32-14.4-32-32c0-9.1,3.5-23.9,8.7-37
			c9.9-24.8,15.8-50.3,17.6-75.9c2.2-31.2,7.4-59.8,15.7-85.1c1.3-3.9-0.9-8.2-4.8-9.4c-3.9-1.3-8.2,0.9-9.4,4.8
			c-8.6,26.5-14.1,56.3-16.4,88.7c-1.7,24-7.2,48-16.6,71.3c-5.9,14.9-9.8,31.5-9.8,42.5c0,25.9,21.1,47,47,47c25.9,0,47-21.1,47-47
			c0-10.1-3.3-25.2-8.5-39.2c-14.9-39.9-18.6-82.2-10.7-122.3C288.3,104.9,313.6,54.1,352,12.6z"/>
	</g>
</g>
<g>
	<g>
		<path class="st0" d="M504,152.4H318.5c-20.7,0-37.5,16.8-37.5,37.4v10.8c0,1.4,0,2.7,0.1,4.1c0,0.4,0,0.9,0,1.3c0,1,0.1,2,0.1,2.9
			c0,0.4,0,0.9,0.1,1.3c0.1,1.2,0.2,2.4,0.3,3.6c0,0.2,0,0.3,0,0.5c0.1,1.4,0.3,2.7,0.5,4.1c0,0.4,0.1,0.7,0.1,1.1
			c0.1,1.1,0.3,2.1,0.5,3.2c0.1,0.3,0.1,0.7,0.2,1c0.2,1.4,0.5,2.9,0.8,4.3c0,0,0,0.1,0,0.1c2.9,14.7,8,28.9,15.2,41.9
			c10.1,18.1,15.2,36.2,15.2,53.6c0,35-28.5,63.5-63.5,63.6c-35-0.1-63.5-28.6-63.5-63.6c0-17.4,5.1-35.5,15.2-53.6
			c7.1-12.8,12.2-26.8,15.1-41.2c0-0.1,0-0.1,0.1-0.2c0-0.1,0-0.3,0.1-0.4c0.1-0.5,0.2-1,0.3-1.6c0.1-0.8,0.3-1.6,0.4-2.4
			c0.1-0.6,0.2-1.2,0.3-1.8c0.1-0.8,0.2-1.6,0.3-2.4c0.1-0.6,0.2-1.1,0.2-1.7c0.2-1.3,0.3-2.5,0.4-3.8c0-0.5,0.1-1,0.1-1.5
			c0.1-0.9,0.2-1.8,0.2-2.7c0-0.5,0.1-1.1,0.1-1.6c0.1-0.9,0.1-1.8,0.1-2.7c0-0.5,0-0.9,0.1-1.4c0-1.4,0.1-2.7,0.1-4.1v-10.8
			c0-20.7-16.8-37.4-37.4-37.4H8c-4.1,0-7.5,3.4-7.5,7.5v46.6v67.6c0,4.1,3.4,7.5,7.5,7.5s7.5-3.4,7.5-7.5v-57.1
			c1.7,1.2,3.2,2.6,4.4,4.3C26.3,230,36.2,235,46.9,235s20.6-5,26.9-13.6c3.5-4.8,8.9-7.5,14.9-7.5s11.4,2.7,14.9,7.5
			c6.4,8.7,16.2,13.6,26.9,13.6s20.6-5,26.9-13.6c3.5-4.8,8.9-7.5,14.9-7.5c5.9,0,11.4,2.7,14.9,7.5c3.7,5,8.5,8.8,14.1,11.1
			c-2.7,10.6-6.7,20.8-12,30.4c-11.3,20.4-17.1,40.9-17.1,60.9c0,43.2,35,78.4,78.2,78.6c0.1,0,0.1,0,0.2,0h0.2c0.1,0,0.1,0,0.2,0
			c43.1-0.2,78.2-35.4,78.2-78.6c0-20-5.7-40.5-17.1-60.9c-4.9-8.8-8.7-18.2-11.4-28c9.4-0.8,18.2-5.6,24-13.5
			c3.5-4.8,8.9-7.5,14.9-7.5s11.4,2.7,14.9,7.5c6.4,8.7,16.2,13.6,26.9,13.6c10.8,0,20.6-5,26.9-13.6c3.5-4.8,8.9-7.5,14.9-7.5
			s11.4,2.7,14.9,7.5c6.4,8.7,16.2,13.6,26.9,13.6s20.6-5,26.9-13.6c1.3-1.7,2.8-3.2,4.5-4.4v162.8c0,4.1,3.4,7.5,7.5,7.5
			s7.5-3.4,7.5-7.5V206.5v-46.6C511.4,155.8,508.1,152.4,504,152.4z M199.3,212.5C199.3,212.5,199.3,212.5,199.3,212.5
			c-6.4-8.7-16.2-13.6-26.9-13.6c-10.8,0-20.6,5-26.9,13.6c-3.5,4.8-8.9,7.5-14.9,7.5c-5.9,0-11.4-2.7-14.9-7.5
			c-6.4-8.7-16.2-13.6-26.9-13.6c-10.8,0-20.6,5-26.9,13.6c-3.5,4.8-8.9,7.5-14.9,7.5s-11.4-2.7-14.9-7.5c-4.2-5.7-9.9-9.9-16.5-12
			v-33.1h167.3c12.4,0,22.5,10.1,22.5,22.5v10.8c0,5.5-0.4,11-1.1,16.5C202.4,216,200.7,214.4,199.3,212.5z M496.5,200.5
			c-6.6,2.1-12.4,6.3-16.6,12c-3.5,4.8-8.9,7.5-14.9,7.5s-11.4-2.7-14.9-7.5c-6.4-8.7-16.2-13.6-26.9-13.6c-10.8,0-20.6,5-26.9,13.6
			c-3.5,4.8-8.9,7.5-14.9,7.5c-5.9,0-11.4-2.7-14.9-7.5c-6.4-8.7-16.2-13.6-26.9-13.6s-20.6,5-26.9,13.6c-3.6,4.9-9.2,7.6-15.1,7.5
			c-0.1-0.4-0.1-0.8-0.2-1.2c-0.1-1-0.3-1.9-0.4-2.9c-0.1-0.6-0.1-1.1-0.2-1.7c-0.1-1-0.2-2-0.3-3c0-0.5-0.1-1.1-0.1-1.6
			c-0.1-1.1-0.1-2.1-0.2-3.2c0-0.5,0-0.9-0.1-1.4c-0.1-1.5-0.1-3-0.1-4.5v-10.8c0-12.4,10.1-22.5,22.5-22.5h177.9L496.5,200.5
			L496.5,200.5z"/>
	</g>
</g>
<g>
	<g>
		<path class="st0" d="M504,402.3c-4.1,0-7.5,3.4-7.5,7.5V497H15.5V304.1c0-4.1-3.4-7.5-7.5-7.5s-7.5,3.4-7.5,7.5v200.4
			c0,4.1,3.4,7.5,7.5,7.5H504c4.1,0,7.5-3.4,7.5-7.5v-94.7C511.4,405.7,508.1,402.3,504,402.3z"/>
	</g>
</g>
<g>
	<g>
		<path class="st0" d="M123.4,262.4c-4.1,0-7.5,3.4-7.5,7.5s3.4,7.5,7.5,7.5c5.5,0,10,4.5,10,10c0,5.5-4.5,10-10,10s-10-4.5-10-10
			c0-4.1-3.4-7.5-7.5-7.5c-4.1,0-7.5,3.4-7.5,7.5c0,13.8,11.2,25,25,25s25-11.2,25-25C148.4,273.7,137.2,262.4,123.4,262.4z"/>
	</g>
</g>
<g>
	<g>
		<path class="st0" d="M68.6,313c-13.8,0-25,11.2-25,25s11.2,25,25,25s25-11.2,25-25S82.4,313,68.6,313z M68.6,348.1
			c-5.5,0-10-4.5-10-10s4.5-10,10-10s10,4.5,10,10S74.1,348.1,68.6,348.1z"/>
	</g>
</g>
<g>
	<g>
		<path class="st0" d="M76.9,380.9c-4.1,0-7.5,3.4-7.5,7.5s3.4,7.5,7.5,7.5c5.5,0,10,4.5,10,10s-4.5,10-10,10s-10-4.5-10-10
			c0-4.1-3.4-7.5-7.5-7.5s-7.5,3.4-7.5,7.5c0,13.8,11.2,25,25,25s25-11.2,25-25C101.9,392.1,90.7,380.9,76.9,380.9z"/>
	</g>
</g>
<g>
	<g>
		<path class="st0" d="M129.9,334.9c-13.8,0-25,11.2-25,25c0,13.8,11.2,25,25,25s25-11.2,25-25C155,346.1,143.7,334.9,129.9,334.9z
			 M129.9,370c-5.5,0-10-4.5-10-10s4.5-10,10-10s10,4.5,10,10C140,365.5,135.5,370,129.9,370z"/>
	</g>
</g>
<g>
	<g>
		<path class="st0" d="M164.7,407.4c-13.8,0-25,11.2-25,25s11.2,25,25,25s25-11.2,25-25S178.5,407.4,164.7,407.4z M164.7,442.5
			c-5.5,0-10-4.5-10-10s4.5-10,10-10s10,4.5,10,10S170.3,442.5,164.7,442.5z"/>
	</g>
</g>
<g>
	<g>
		<path class="st0" d="M380.4,288.7c-13.8,0-25,11.2-25,25c0,13.8,11.2,25,25,25s25-11.2,25-25C405.4,300,394.2,288.7,380.4,288.7z
			 M380.4,323.8c-5.5,0-10-4.5-10-10s4.5-10,10-10s10,4.5,10,10C390.4,319.3,385.9,323.8,380.4,323.8z"/>
	</g>
</g>
<g>
	<g>
		<path class="st0" d="M362.2,360.1c-4.1,0-7.5,3.4-7.5,7.5s3.4,7.5,7.5,7.5c5.5,0,10,4.5,10,10s-4.5,10-10,10s-10-4.5-10-10
			c0-4.1-3.4-7.5-7.5-7.5c-4.1,0-7.5,3.4-7.5,7.5c0,13.8,11.2,25,25,25c13.8,0,25-11.2,25-25C387.3,371.4,376,360.1,362.2,360.1z"/>
	</g>
</g>
<g>
	<g>
		<path class="st0" d="M443.5,266.2c-4.1,0-7.5,3.4-7.5,7.5c0,4.1,3.4,7.5,7.5,7.5c5.5,0,10,4.5,10,10s-4.5,10-10,10s-10-4.5-10-10
			c0-4.1-3.4-7.5-7.5-7.5s-7.5,3.4-7.5,7.5c0,13.8,11.2,25,25,25c13.8,0,25-11.2,25-25S457.3,266.2,443.5,266.2z"/>
	</g>
</g>
<g>
	<g>
		<path class="st0" d="M432,346.7c-13.8,0-25,11.2-25,25c0,13.8,11.2,25,25,25s25-11.2,25-25C457,357.9,445.8,346.7,432,346.7z
			 M432,381.8c-5.5,0-10-4.5-10-10s4.5-10,10-10s10,4.5,10,10C442,377.3,437.5,381.8,432,381.8z"/>
	</g>
</g>
<g>
	<g>
		<path class="st0" d="M329,424c-13.8,0-25,11.2-25,25c0,13.8,11.2,25,25,25s25-11.2,25-25S342.8,424,329,424z M329,459.1
			c-5.5,0-10-4.5-10-10s4.5-10,10-10c5.5,0,10,4.5,10,10C339,454.6,334.5,459.1,329,459.1z"/>
	</g>
</g>
<g>
	<g>
		<path class="st0" d="M406.6,412.8c-13.8,0-25,11.2-25,25s11.2,25,25,25s25-11.2,25-25S420.4,412.8,406.6,412.8z M406.6,447.9
			c-5.5,0-10-4.5-10-10s4.5-10,10-10s10,4.5,10,10S412.1,447.9,406.6,447.9z"/>
	</g>
</g>
</svg>
