<?xml version="1.0" encoding="utf-8"?>
<!-- Generator: Adobe Illustrator 23.0.1, SVG Export Plug-In . SVG Version: 6.00 Build 0)  -->
<svg version="1.1" id="Capa_1" xmlns="http://www.w3.org/2000/svg" xmlns:xlink="http://www.w3.org/1999/xlink" x="0px" y="0px"
	 width="496px" height="496px" viewBox="0 0 496 496" style="enable-background:new 0 0 496 496;" xml:space="preserve">
<style type="text/css">
	.st0{fill:#6BC4C7;}
</style>
<g>
	<g>
		<g>
			<path class="st0" d="M264,16C175.3,16,93.5,67.4,55,147.3C20.5,169.5,0,207,0,248s20.5,78.5,55,100.7
				C93.5,428.6,175.3,480,264,480c127.9,0,232-104.1,232-232S391.9,16,264,16z M264,464c-83.3,0-160-48.8-195.5-124.2l-1-2.2l-2-1.2
				C34.5,317.3,16,284.2,16,248s18.5-69.3,49.4-88.4l2-1.2l1-2.2C104,80.8,180.7,32,264,32c119.1,0,216,96.9,216,216
				S383.1,464,264,464z"/>
			<path class="st0" d="M136.1,350.4c5.1-5.6,9.9-11.6,14.1-17.9l-13.3-8.9c-3.8,5.7-8.1,11.1-12.6,16c-5.9,6.5-17.1,5-21.2-2.3
				C88,310.1,80,279.2,80,248s8-62.1,23.2-89.3c4.1-7.3,15.2-8.7,21.2-2.3c23,25.1,35.7,57.6,35.7,91.6c0,21.9-5.1,42.8-15.1,62.2
				l14.2,7.4c11.2-21.6,16.9-45,16.9-69.5c0-38-14.2-74.3-39.9-102.4c-5.6-6.1-13.5-9.6-21.6-9.6c-10.5,0-20.2,5.7-25.4,14.9
				C72.7,180.5,64,214,64,248s8.7,67.5,25.2,97.1c5.1,9.2,14.8,14.9,25.4,14.9C122.7,360,130.5,356.5,136.1,350.4z"/>
			<path class="st0" d="M264,48c-56.8,0-111.1,24.3-149,66.7l11.9,10.7C161.8,86.4,211.8,64,264,64c98.8,0,179.6,78.2,183.8,176h-18
				l-14.2-42.5l-15.2,5.1l12.5,37.5h-17.4l-58.6-63.9l14.2-28.5l-14.3-7.2l-11.5,23l-15.4-16.8l-11.8,10.8l44.2,48.2l-16,13.3
				l-24.6-24.6l-11.3,11.3l23.6,23.6l-15.1,12.6l10.2,12.3l44-36.7l28,30.6l-41.5,45.6l-69.5-27.8L255.4,229l-14.9,5.9l13.3,33.2
				l-25.4,12.7l7.2,14.3l28.8-14.4l63.8,25.5L308.5,328H264v16h38.2l-6.1,30.4l15.7,3.1l7.6-37.8l42.4-46.6l12.5,12.5l-13.4,26.8
				l14.3,7.2l12.9-25.8l17.4,5.8l5.1-15.2l-22.2-7.4l-15.8-15.8l23-25.3h52.3c-4.2,97.8-85,176-183.8,176
				c-52.2,0-102.2-22.4-137.1-61.3L115,381.3c37.9,42.4,92.2,66.7,149,66.7c110.3,0,200-89.7,200-200S374.3,48,264,48z"/>
		</g>
	</g>
</g>
</svg>
